C:\Proyectos\Linea Base\document-publisher\document-publisher-services\src\main\java\com\cfn\document\publisher\infrastructure\handlers\HandlerProcessor.java
C:\Proyectos\Linea Base\document-publisher\document-publisher-services\src\main\java\com\cfn\document\publisher\base\exceptions\ExceptionBuilder.java
C:\Proyectos\Linea Base\document-publisher\document-publisher-services\src\main\java\com\cfn\document\publisher\base\builder\impl\TemplateReportGenerationResponseBuilder.java
C:\Proyectos\Linea Base\document-publisher\document-publisher-services\src\main\java\com\cfn\document\publisher\model\TemplateReportGenerationResponse.java
C:\Proyectos\Linea Base\document-publisher\document-publisher-services\src\main\java\com\cfn\document\publisher\model\TemplateReportGenerationRequest.java
C:\Proyectos\Linea Base\document-publisher\document-publisher-services\src\main\java\com\cfn\document\publisher\integration\ws\PublisherWS.java
C:\Proyectos\Linea Base\document-publisher\document-publisher-services\src\main\java\com\cfn\document\publisher\infrastructure\handlers\impl\DocumentPublisher.java
C:\Proyectos\Linea Base\document-publisher\document-publisher-services\src\main\java\com\cfn\document\publisher\base\exceptions\HandlerException.java
C:\Proyectos\Linea Base\document-publisher\document-publisher-services\src\main\java\com\cfn\document\publisher\infrastructure\adapters\impl\FileNetLegacyWrapper.java
C:\Proyectos\Linea Base\document-publisher\document-publisher-services\src\main\java\com\cfn\document\publisher\infrastructure\handlers\impl\TemplateExtractor.java
C:\Proyectos\Linea Base\document-publisher\document-publisher-services\src\main\java\com\cfn\document\publisher\base\builder\Builder.java
C:\Proyectos\Linea Base\document-publisher\document-publisher-services\src\main\java\com\cfn\document\publisher\infrastructure\handlers\context\ContextHolder.java
C:\Proyectos\Linea Base\document-publisher\document-publisher-services\src\main\java\com\cfn\document\publisher\base\exceptions\BusinessException.java
C:\Proyectos\Linea Base\document-publisher\document-publisher-services\src\main\java\com\cfn\document\publisher\infrastructure\adapters\impl\DBFunctionLegacyWrapper.java
C:\Proyectos\Linea Base\document-publisher\document-publisher-services\src\main\java\com\cfn\document\publisher\infrastructure\handlers\impl\TemplateFormatConverter.java
C:\Proyectos\Linea Base\document-publisher\document-publisher-services\src\main\java\com\cfn\document\publisher\infrastructure\handlers\impl\TemplateFiller.java
C:\Proyectos\Linea Base\document-publisher\document-publisher-services\src\main\java\com\cfn\document\publisher\base\constants\DataBaseResource.java
C:\Proyectos\Linea Base\document-publisher\document-publisher-services\src\main\java\com\cfn\document\publisher\infrastructure\adapters\LegacyWrapper.java
C:\Proyectos\Linea Base\document-publisher\document-publisher-services\src\main\java\com\cfn\document\publisher\infrastructure\adapters\impl\StoredProcedureLegacyWrapper.java
C:\Proyectos\Linea Base\document-publisher\document-publisher-services\src\main\java\com\cfn\document\publisher\base\exceptions\PublisherException.java
C:\Proyectos\Linea Base\document-publisher\document-publisher-services\src\main\java\com\cfn\document\publisher\base\exceptions\SystemException.java
C:\Proyectos\Linea Base\document-publisher\document-publisher-services\src\main\java\com\cfn\document\publisher\base\util\MessageUtil.java
